<svg width="23" height="23" viewBox="0 0 23 23" fill="none" xmlns="http://www.w3.org/2000/svg">
<path d="M22.9994 11.4786C22.9994 5.14947 17.8499 0 11.5207 0C11.2633 0 11.0573 0.205979 11.0573 0.463452V4.70943H10.8419C8.69321 4.70943 6.94239 6.45556 6.94239 8.60898V14.353C6.94239 16.5017 8.68853 18.2525 10.8419 18.2525H12.1948C14.3436 18.2525 16.0944 16.5064 16.0944 14.353V8.6043C16.0944 6.45556 14.3483 4.70474 12.1948 4.70474H11.9795V0.931586C17.5877 1.17502 22.0725 5.81422 22.0725 11.4786C22.0725 15.205 20.1672 18.5802 16.9792 20.5136C13.6835 22.5079 9.66224 22.5406 5.94994 20.6026C4.42383 19.8021 3.19264 18.5709 2.39213 17.0401C-0.103026 12.2511 0.720889 6.97519 4.49405 3.60931C4.68598 3.44078 4.70003 3.14586 4.5315 2.95392C4.36297 2.76199 4.06805 2.74795 3.87611 2.91647C1.99889 4.59239 0.706845 6.86752 0.238712 9.32522C-0.266873 11.9983 0.191898 14.8164 1.56821 17.4614C2.45298 19.1654 3.81994 20.5323 5.51926 21.4171C7.48542 22.447 9.53585 22.9573 11.5395 22.9573C13.6133 22.9573 15.6403 22.4049 17.4614 21.3001C20.9302 19.2028 22.9994 15.528 22.9994 11.4786ZM12.1995 5.63165C13.838 5.63165 15.1722 6.96583 15.1722 8.6043V14.3483C15.1722 15.9868 13.838 17.3209 12.1995 17.3209H10.8466C9.20815 17.3209 7.87397 15.9868 7.87397 14.3483V8.6043C7.87397 6.96583 9.20815 5.63165 10.8466 5.63165H12.1995Z" fill="#2C2F33"/>
<path d="M11.5201 10.3077C11.7776 10.3077 11.9835 10.1017 11.9835 9.84422V7.55037C11.9835 7.29289 11.7776 7.08691 11.5201 7.08691C11.2626 7.08691 11.0566 7.29289 11.0566 7.55037V9.84422C11.0566 10.097 11.2626 10.3077 11.5201 10.3077Z" fill="#543DCC"/>
</svg>
